,x,y,z,added
0,16.214791564412213,-700.7380996226364,-125,2021-08-06 22:07:53.767776
1,-411.77406195255605,-215.98209997768365,-110,2021-08-06 22:23:23.014112
2,-389.6200124684602,-269.670012851633,-115,2021-08-06 22:26:42.613667
3,-310.0502225401112,-333.01581190876635,-85,2021-08-06 22:31:20.197618
4,-200.2689556633751,-334.99711530341744,-34,2021-08-06 22:34:46.078893
5,-74.3073435106437,-366.8827828817613,-19,2021-08-06 22:36:16.416136
6,-52.59530462536486,-349.931668167591,-23,2021-08-06 22:38:31.318503
7,-0.2207474481434626,8.80448617406003,-20,2021-08-06 22:44:29.165043
8,19.0507997396282,117.58055095451796,-21,2021-08-06 22:45:47.651769
9,-218.14421979285493,-48.65861583728179,-42,2021-08-06 22:47:57.460421
10,-189.6100690750687,-24.295610191037184,-17,2021-08-06 22:50:28.639090
11,139.67224026717653,-28.73253911451357,-57,2021-08-06 22:57:09.817854
12,259.6735518833199,92.25255951636514,-97,2021-08-06 22:58:33.320852
13,443.1935009044439,-312.7581759768956,-25,2021-08-06 23:07:32.870244
14,350.7501332060154,-332.6944490962944,-36,2021-08-06 23:08:54.425103
15,489.6848722635155,-414.55847223613546,-86,2021-08-06 23:10:12.567029
16,812.2712868495256,-723.900748127789,-195,2021-08-06 23:15:03.036819
17,265.8308634958672,-445.3423776516667,-96,2021-08-06 23:17:41.297645
18,229.57755839059297,-409.3130483363198,-61,2021-08-06 23:18:55.869542
19,161.4631501433885,-488.7672229760988,-95,2021-08-06 23:20:38.523868
20,93.30445459999036,-572.558434145634,-104,2021-08-06 23:22:52.648930
21,-53.736373237499215,-570.8404940097096,-105,2021-08-06 23:27:03.859007
22,-106.43003914944128,-509.0345726053003,-52,2021-08-06 23:28:20.892359
23,-68.89588354491474,-440.5873282278267,-27,2021-08-06 23:51:49.681320
