,x,y,z,added
0,5.588028792411135,-499.63385043052966,-24.0,2021-08-07 14:18:43.617735
1,118.51347888987377,-532.7807045232096,-12.0,2021-08-07 14:20:06.937145
2,129.27794340468745,-559.8739744267004,2.0,2021-08-07 14:21:08.137496
3,130.16701969438452,-517.0001276157885,-29.0,2021-08-07 14:25:29.861237
4,45.94005637649808,-475.5854742592185,-37.0,2021-08-07 14:27:37.944254
5,40.09607565278529,-465.2409667191272,-60.0,2021-08-07 14:28:43.614062
6,-16.441965134999993,-391.4134566955116,-51.0,2021-08-07 14:30:10.632286
7,5.861217135176319,-82.96546245913046,-10.0,2021-08-07 14:32:01.624534
8,-96.03687429884452,33.501287441560635,-10.0,2021-08-07 14:36:02.863940
9,-99.63766224627145,101.36868699516732,-26.0,2021-08-07 14:39:12.875562
10,94.79363677380412,50.45826601069056,-40.0,2021-08-07 14:41:27.562363
11,275.7891779287073,-38.86192116626499,-44.0,2021-08-07 14:43:57.613724
12,302.17292284965725,-78.9700686721132,-79.0,2021-08-07 14:45:25.104524
13,132.4025402360424,-154.49628925772734,-58.0,2021-08-07 14:48:12.157878
14,63.81102118327091,-162.28865420337192,-107.0,2021-08-07 14:51:41.395160
15,50.58529576816887,-100.84890200661772,-32.0,2021-08-07 14:54:28.737010
16,0.5483751392491499,-0.938058283701083,-15.0,2021-08-07 15:01:16.575132
17,-11.124511699240976,-155.35523976034466,-118.0,2021-08-07 15:03:17.699626
18,-2.026003875004145,-180.9965225872637,-35.0,2021-08-07 15:04:21.999499
19,93.2851453907028,-389.58362086755847,-53.0,2021-08-07 15:06:25.951827
20,146.7539730173635,-458.4553355503123,-13.0,2021-08-07 15:07:40.226080
21,204.4825692341504,-430.6553339379362,-49.0,2021-08-07 15:09:26.384893
22,239.12079665693943,-437.0957214920653,-119.0,2021-08-07 15:10:59.884416
23,228.83280858690708,-433.33263186074754,-78.0,2021-08-07 15:14:36.790965
24,255.62209255407345,-436.5444876933335,-55.0,2021-08-07 15:15:32.072247
25,255.41000532632933,-451.1069947930304,-36.0,2021-08-07 15:16:23.913809
26,-31.415660027334244,-32.943803024411544,-35.0,2021-08-07 16:45:38.866820
27,13.08643769604547,-80.12314627621787,-10.0,2021-08-07 16:46:24.663996
28,26.75887297439755,-19.854460206502136,-20.0,2021-08-07 16:48:04.369695
29,126.25381555663792,-63.91170038862112,-46.0,2021-08-07 16:49:05.289242
30,260.1612491879649,-324.13180544295267,-30.0,2021-08-07 16:51:00.206912
31,234.4429806358006,-361.96166640561705,-77.0,2021-08-07 16:52:16.451725
32,348.75496705667643,-518.5326440582593,-38.0,2021-08-07 16:53:33.919208
33,432.83561554233125,-577.1710827868142,-48.0,2021-08-07 16:54:54.380758
34,498.0640178301362,-600.4549816165146,-103.0,2021-08-07 16:57:19.898688
35,541.727143622721,-723.2526922619768,-114.0,2021-08-07 17:00:49.366988
36,593.7087946300462,-778.2624172927652,-155.0,2021-08-07 17:03:49.496200
37,437.5708200430849,-682.5516860430932,-40.0,2021-08-07 17:16:12.205783
38,586.2067598651738,-444.2634369840714,-105.0,2021-08-07 17:20:54.724874
39,396.5099986003764,-337.20568326301867,-42.0,2021-08-07 17:34:13.650013
40,513.3696289368188,-77.69215024197703,-43.0,2021-08-07 17:38:54.418995
41,549.9213099908361,4.9211740849950205,-38.0,2021-08-07 17:52:02.818004
42,388.3692803018869,8.870831808399126,-34.0,2021-08-07 17:56:31.099182
43,13.409688573595334,-288.2341819556926,-201.0,2021-08-07 18:34:32.020938
44,-71.94793355084691,127.3034873336202,-15.0,2021-08-07 18:41:34.059699
45,73.11271559063196,187.2781614582801,6.039024974417219,2021-08-07 19:01:15.442183
46,-4.227170931583309,208.1177524902089,13.729777585385648,2021-08-07 19:02:10.162736
47,-30.111367851646744,282.4614024873284,18.744286684917714,2021-08-07 19:03:54.110647
48,313.04231497930084,313.92547436062057,-33.0,2021-08-07 19:12:56.721689
49,186.2068452692882,326.4985874686593,14.98687946588545,2021-08-07 19:36:37.887730
50,-311.5905425224169,49.10712099560584,-34.0,2021-08-07 23:40:30.753239
51,-207.101507812484,-214.3482925630861,-61.0,2021-08-08 00:01:30.970846
52,-215.30407243006047,-470.9076465019479,-60.0,2021-08-08 12:36:04.969457
53,-154.8985511335462,-497.78341082986543,-115.0,2021-08-08 12:40:36.515916
54,158.07999594262012,113.26008618421046,-21.0,2021-08-08 16:02:40.136391
55,367.7553880236554,150.14043595453683,-42.0,2021-08-08 16:05:10.657559
56,697.4894546214654,-124.818675328602,-60.0,2021-08-08 16:38:17.970787
57,772.7111391216766,-596.874708944437,-167.0,2021-08-08 18:16:52.848603
58,469.64922392961944,-509.0359873027001,-27.0,2021-08-08 18:20:43.066327
